^E:\GIT\HOME\OISIN\REPOS\BOOKREPOSITORY\BOOKREPOSITORY\ADMIN.CPP
/c /ZI /nologo /W3 /WX- /Od /Oy- /D _MBCS /Gm /EHsc /RTC1 /MDd /GS /fp:precise /Zc:wchar_t /Zc:forScope /Fo"DEBUG\\" /Fd"DEBUG\VC110.PDB" /Gd /TP /analyze- E:\GIT\HOME\OISIN\REPOS\BOOKREPOSITORY\BOOKREPOSITORY\ADMIN.CPP
^E:\GIT\HOME\OISIN\REPOS\BOOKREPOSITORY\BOOKREPOSITORY\BOOK.CPP
/c /ZI /nologo /W3 /WX- /Od /Oy- /D _MBCS /Gm /EHsc /RTC1 /MDd /GS /fp:precise /Zc:wchar_t /Zc:forScope /Fo"DEBUG\\" /Fd"DEBUG\VC110.PDB" /Gd /TP /analyze- E:\GIT\HOME\OISIN\REPOS\BOOKREPOSITORY\BOOKREPOSITORY\BOOK.CPP
^E:\GIT\HOME\OISIN\REPOS\BOOKREPOSITORY\BOOKREPOSITORY\GUEST.CPP
/c /ZI /nologo /W3 /WX- /Od /Oy- /D _MBCS /Gm /EHsc /RTC1 /MDd /GS /fp:precise /Zc:wchar_t /Zc:forScope /Fo"DEBUG\\" /Fd"DEBUG\VC110.PDB" /Gd /TP /analyze- E:\GIT\HOME\OISIN\REPOS\BOOKREPOSITORY\BOOKREPOSITORY\GUEST.CPP
^E:\GIT\HOME\OISIN\REPOS\BOOKREPOSITORY\BOOKREPOSITORY\MAIN.CPP
/c /ZI /nologo /W3 /WX- /Od /Oy- /D _MBCS /Gm /EHsc /RTC1 /MDd /GS /fp:precise /Zc:wchar_t /Zc:forScope /Fo"DEBUG\\" /Fd"DEBUG\VC110.PDB" /Gd /TP /analyze- E:\GIT\HOME\OISIN\REPOS\BOOKREPOSITORY\BOOKREPOSITORY\MAIN.CPP
^E:\GIT\HOME\OISIN\REPOS\BOOKREPOSITORY\BOOKREPOSITORY\REGUSER.CPP
/c /ZI /nologo /W3 /WX- /Od /Oy- /D _MBCS /Gm /EHsc /RTC1 /MDd /GS /fp:precise /Zc:wchar_t /Zc:forScope /Fo"DEBUG\\" /Fd"DEBUG\VC110.PDB" /Gd /TP /analyze- E:\GIT\HOME\OISIN\REPOS\BOOKREPOSITORY\BOOKREPOSITORY\REGUSER.CPP
^E:\GIT\HOME\OISIN\REPOS\BOOKREPOSITORY\BOOKREPOSITORY\USER.CPP
/c /ZI /nologo /W3 /WX- /Od /Oy- /D _MBCS /Gm /EHsc /RTC1 /MDd /GS /fp:precise /Zc:wchar_t /Zc:forScope /Fo"DEBUG\\" /Fd"DEBUG\VC110.PDB" /Gd /TP /analyze- E:\GIT\HOME\OISIN\REPOS\BOOKREPOSITORY\BOOKREPOSITORY\USER.CPP
